<?xml version="1.0" encoding="UTF-8" standalone="no"?>
<!-- Created with Inkscape (http://www.inkscape.org/) -->

<svg
   xmlns:dc="http://purl.org/dc/elements/1.1/"
   xmlns:cc="http://creativecommons.org/ns#"
   xmlns:rdf="http://www.w3.org/1999/02/22-rdf-syntax-ns#"
   xmlns:svg="http://www.w3.org/2000/svg"
   xmlns="http://www.w3.org/2000/svg"
   xmlns:sodipodi="http://sodipodi.sourceforge.net/DTD/sodipodi-0.dtd"
   xmlns:inkscape="http://www.inkscape.org/namespaces/inkscape"
   width="470.91"
   height="187.41"
   id="svg2"
   version="1.1"
   inkscape:version="0.91 r13725"
   sodipodi:docname="bpd_kinematics.svg">
  <defs
     id="defs4">
    <marker
       inkscape:stockid="Arrow1Lend"
       orient="auto"
       refY="0"
       refX="0"
       id="Arrow1Lend"
       style="overflow:visible">
      <path
         id="path3764"
         d="M 0,0 5,-5 -12.5,0 5,5 0,0 z"
         style="fill-rule:evenodd;stroke:#000000;stroke-width:1pt"
         transform="matrix(-0.8,0,0,-0.8,-10,0)"
         inkscape:connector-curvature="0" />
    </marker>
    <marker
       inkscape:stockid="Arrow1Lstart"
       orient="auto"
       refY="0"
       refX="0"
       id="Arrow1Lstart"
       style="overflow:visible">
      <path
         id="path3761"
         d="M 0,0 5,-5 -12.5,0 5,5 0,0 z"
         style="fill-rule:evenodd;stroke:#000000;stroke-width:1pt"
         transform="matrix(0.8,0,0,0.8,10,0)"
         inkscape:connector-curvature="0" />
    </marker>
    <marker
       inkscape:stockid="Arrow1Lstart"
       orient="auto"
       refY="0"
       refX="0"
       id="Arrow1Lstart-7"
       style="overflow:visible">
      <path
         id="path3761-8"
         d="M 0,0 5,-5 -12.5,0 5,5 0,0 z"
         style="fill-rule:evenodd;stroke:#000000;stroke-width:1pt"
         transform="matrix(0.8,0,0,0.8,10,0)"
         inkscape:connector-curvature="0" />
    </marker>
    <marker
       inkscape:stockid="Arrow1Lend"
       orient="auto"
       refY="0"
       refX="0"
       id="Arrow1Lend-9"
       style="overflow:visible">
      <path
         id="path3764-8"
         d="M 0,0 5,-5 -12.5,0 5,5 0,0 z"
         style="fill-rule:evenodd;stroke:#000000;stroke-width:1pt"
         transform="matrix(-0.8,0,0,-0.8,-10,0)"
         inkscape:connector-curvature="0" />
    </marker>
  </defs>
  <sodipodi:namedview
     id="base"
     pagecolor="#ffffff"
     bordercolor="#666666"
     borderopacity="1.0"
     inkscape:pageopacity="0.0"
     inkscape:pageshadow="2"
     inkscape:zoom="2.5625"
     inkscape:cx="315.86847"
     inkscape:cy="-12.403422"
     inkscape:document-units="px"
     inkscape:current-layer="layer1"
     showgrid="false"
     fit-margin-top="0"
     fit-margin-left="0"
     fit-margin-right="0"
     fit-margin-bottom="0"
     inkscape:window-width="2560"
     inkscape:window-height="1376"
     inkscape:window-x="1600"
     inkscape:window-y="27"
     inkscape:window-maximized="1">
    <inkscape:grid
       type="xygrid"
       id="grid2985"
       empspacing="5"
       visible="true"
       enabled="true"
       snapvisiblegridlinesonly="true"
       originx="-49.543094px"
       originy="-599.17134px" />
  </sodipodi:namedview>
  <metadata
     id="metadata7">
    <rdf:RDF>
      <cc:Work
         rdf:about="">
        <dc:format>image/svg+xml</dc:format>
        <dc:type
           rdf:resource="http://purl.org/dc/dcmitype/StillImage" />
        <dc:title></dc:title>
      </cc:Work>
    </rdf:RDF>
  </metadata>
  <g
     inkscape:label="Layer 1"
     inkscape:groupmode="layer"
     id="layer1"
     transform="translate(-49.543094,-265.78099)">
    <text
       xml:space="preserve"
       style="font-size:10px;font-style:normal;font-weight:normal;line-height:125%;letter-spacing:0px;word-spacing:0px;fill:#000000;fill-opacity:1;stroke:none;font-family:Sans"
       x="273.93994"
       y="550.64508"
       id="text4604"
       sodipodi:linespacing="125%"><tspan
         sodipodi:role="line"
         x="273.93994"
         y="550.64508"
         id="tspan4608" /></text>
    <flowRoot
       xml:space="preserve"
       id="flowRoot4702"
       style="font-size:40px;font-style:normal;font-weight:normal;line-height:125%;letter-spacing:0px;word-spacing:0px;fill:#000000;fill-opacity:1;stroke:none;font-family:Sans"><flowRegion
         id="flowRegion4704"><rect
           id="rect4706"
           width="62.562786"
           height="47.377644"
           x="391.16925"
           y="570.08209" /></flowRegion><flowPara
         id="flowPara4708" /></flowRoot>    <flowRoot
       xml:space="preserve"
       id="flowRoot4756"
       style="font-size:40px;font-style:normal;font-weight:normal;line-height:125%;letter-spacing:0px;word-spacing:0px;fill:#000000;fill-opacity:1;stroke:none;font-family:Sans"><flowRegion
         id="flowRegion4758"><rect
           id="rect4760"
           width="83.214577"
           height="52.236889"
           x="-14.577736"
           y="673.94843" /></flowRegion><flowPara
         id="flowPara4762" /></flowRoot>    <path
       style="fill:none;stroke:#000000;stroke-width:0.91381156;stroke-linecap:butt;stroke-linejoin:miter;stroke-miterlimit:4;stroke-opacity:1;stroke-dasharray:1.8276231, 0.91381155;stroke-dashoffset:0"
       d="m 84.622124,297.78442 404.999996,0"
       id="path4823"
       inkscape:connector-curvature="0" />
    <path
       style="fill:none;stroke:#000000;stroke-width:0.91381156;stroke-linecap:butt;stroke-linejoin:miter;stroke-miterlimit:4;stroke-opacity:1;stroke-dasharray:1.8276231, 0.91381155;stroke-dashoffset:0"
       d="m 84.622124,352.78443 404.999996,0 0,0"
       id="path4825"
       inkscape:connector-curvature="0" />
    <path
       style="fill:none;stroke:#000000;stroke-width:0.91381156;stroke-linecap:butt;stroke-linejoin:miter;stroke-miterlimit:4;stroke-opacity:1;stroke-dasharray:1.8276231, 0.91381155;stroke-dashoffset:0"
       d="m 84.622124,402.78443 404.999996,0"
       id="path4827"
       inkscape:connector-curvature="0" />
    <path
       style="fill:none;stroke:#000000;stroke-width:1px;stroke-linecap:butt;stroke-linejoin:miter;stroke-opacity:1;marker-start:url(#Arrow1Lstart);marker-mid:none;marker-end:url(#Arrow1Lend)"
       d="m 189.62212,297.78443 -75,105"
       id="path5019"
       inkscape:connector-curvature="0" />
    <path
       style="fill:none;stroke:#000000;stroke-width:1px;stroke-linecap:butt;stroke-linejoin:miter;stroke-opacity:1"
       d="m 170.79583,325.03679 c 25.24867,8.02084 21.28218,27.84108 21.2592,27.94066"
       id="path5949"
       inkscape:connector-curvature="0"
       sodipodi:nodetypes="cc" />
    <text
       xml:space="preserve"
       style="font-size:14px;font-style:normal;font-variant:normal;font-weight:normal;font-stretch:normal;text-align:start;line-height:125%;letter-spacing:0px;word-spacing:0px;writing-mode:lr-tb;text-anchor:start;fill:#000000;fill-opacity:1;stroke:none;font-family:Sans;-inkscape-font-specification:Sans"
       x="164.11435"
       y="348.11823"
       id="text5951"
       sodipodi:linespacing="125%"><tspan
         sodipodi:role="line"
         id="tspan5953"
         x="164.11435"
         y="348.11823">Θ</tspan></text>
    <text
       xml:space="preserve"
       style="font-size:12px;font-style:normal;font-weight:normal;line-height:125%;letter-spacing:0px;word-spacing:0px;fill:#000000;fill-opacity:1;stroke:none;font-family:Sans"
       x="173.83286"
       y="345.08118"
       id="text5955"
       sodipodi:linespacing="125%"><tspan
         sodipodi:role="line"
         id="tspan5957"
         x="173.83286"
         y="345.08118">*</tspan></text>
    <path
       sodipodi:type="arc"
       style="color:#000000;fill:#000000;fill-opacity:1;stroke:#000000;stroke-width:1;stroke-linecap:butt;stroke-linejoin:miter;stroke-miterlimit:4;stroke-opacity:1;stroke-dasharray:2, 1;stroke-dashoffset:0;marker:none;visibility:visible;display:inline;overflow:visible;enable-background:accumulate"
       id="path5961"
       sodipodi:cx="-373.25079"
       sodipodi:cy="-47.227085"
       sodipodi:rx="4.5555425"
       sodipodi:ry="4.8592453"
       d="m -368.69525,-47.227085 a 4.5555425,4.8592453 0 0 1 -4.55554,4.859245 4.5555425,4.8592453 0 0 1 -4.55555,-4.859245 4.5555425,4.8592453 0 0 1 4.55555,-4.859245 4.5555425,4.8592453 0 0 1 4.55554,4.859245 z"
       transform="translate(524.30593,400.20454)" />
    <text
       xml:space="preserve"
       style="font-size:40px;font-style:normal;font-weight:normal;line-height:125%;letter-spacing:0px;word-spacing:0px;fill:#000000;fill-opacity:1;stroke:none;font-family:Sans"
       x="-208.34015"
       y="223.67586"
       id="text5963"
       sodipodi:linespacing="125%"
       transform="translate(172.01064,315.77515)"><tspan
         sodipodi:role="line"
         id="tspan5965"
         x="-208.34015"
         y="223.67586" /></text>
    <text
       xml:space="preserve"
       style="font-size:16px;font-style:normal;font-weight:normal;line-height:125%;letter-spacing:0px;word-spacing:0px;fill:#000000;fill-opacity:1;stroke:none;font-family:Sans"
       x="136.7811"
       y="349.33304"
       id="text5967"
       sodipodi:linespacing="125%"><tspan
         sodipodi:role="line"
         id="tspan5969"
         x="136.7811"
         y="349.33304">π</tspan></text>
    <text
       xml:space="preserve"
       style="font-size:12px;font-style:normal;font-weight:normal;line-height:125%;letter-spacing:0px;word-spacing:0px;fill:#000000;fill-opacity:1;stroke:none;font-family:Sans"
       x="145.89218"
       y="344.47379"
       id="text5971"
       sodipodi:linespacing="125%"><tspan
         sodipodi:role="line"
         id="tspan5973"
         x="145.89218"
         y="344.47379">0</tspan></text>
    <path
       sodipodi:type="arc"
       style="color:#000000;fill:#000000;fill-opacity:1;stroke:#000000;stroke-width:1;stroke-linecap:butt;stroke-linejoin:miter;stroke-miterlimit:4;stroke-opacity:1;stroke-dasharray:2, 1;stroke-dashoffset:0;marker:none;visibility:visible;display:inline;overflow:visible;enable-background:accumulate"
       id="path5961-0"
       sodipodi:cx="-373.25079"
       sodipodi:cy="-47.227085"
       sodipodi:rx="4.5555425"
       sodipodi:ry="4.8592453"
       d="m -368.69525,-47.227085 a 4.5555425,4.8592453 0 0 1 -4.55554,4.859245 4.5555425,4.8592453 0 0 1 -4.55555,-4.859245 4.5555425,4.8592453 0 0 1 4.55555,-4.859245 4.5555425,4.8592453 0 0 1 4.55554,4.859245 z"
       transform="translate(716.57622,401.07534)" />
    <text
       xml:space="preserve"
       style="font-size:16px;font-style:normal;font-weight:normal;line-height:125%;letter-spacing:0px;word-spacing:0px;fill:#000000;fill-opacity:1;stroke:none;font-family:Sans"
       x="329.05139"
       y="350.20383"
       id="text5967-1"
       sodipodi:linespacing="125%"><tspan
         sodipodi:role="line"
         id="tspan5969-7"
         x="329.05139"
         y="350.20383">π</tspan></text>
    <text
       xml:space="preserve"
       style="font-size:12px;font-style:normal;font-weight:normal;line-height:125%;letter-spacing:0px;word-spacing:0px;fill:#000000;fill-opacity:1;stroke:none;font-family:Sans"
       x="338.16248"
       y="345.34457"
       id="text5971-5"
       sodipodi:linespacing="125%"><tspan
         sodipodi:role="line"
         id="tspan5973-4"
         x="338.16248"
         y="345.34457">0</tspan></text>
    <path
       style="fill:none;stroke:#000000;stroke-width:1px;stroke-linecap:butt;stroke-linejoin:miter;stroke-opacity:1;marker-start:none;marker-end:url(#Arrow1Lend-9)"
       d="m 343.90644,352.97745 c 117.8367,-55.27391 117.8367,-55.27391 117.8367,-55.27391"
       id="path6035"
       inkscape:connector-curvature="0" />
    <path
       style="fill:none;stroke:#000000;stroke-width:1px;stroke-linecap:butt;stroke-linejoin:miter;stroke-opacity:1;marker-end:url(#Arrow1Lend-9)"
       d="m 343.29904,354.19227 58.31094,47.37763"
       id="path6413"
       inkscape:connector-curvature="0" />
    <path
       style="fill:none;stroke:#000000;stroke-width:1px;stroke-linecap:butt;stroke-linejoin:miter;stroke-opacity:1"
       d="m 379.74338,337.18491 c 1.37971,12.4576 3.21018,24.95618 -12.75552,35.83693"
       id="path6603"
       inkscape:connector-curvature="0"
       sodipodi:nodetypes="cc" />
    <text
       xml:space="preserve"
       style="font-size:16px;font-style:normal;font-weight:normal;line-height:125%;letter-spacing:0px;word-spacing:0px;fill:#000000;fill-opacity:1;stroke:none;font-family:Sans"
       x="362.12863"
       y="357.83673"
       id="text6605"
       sodipodi:linespacing="125%"><tspan
         sodipodi:role="line"
         id="tspan6607"
         x="362.12863"
         y="357.83673">α</tspan></text>
    <text
       xml:space="preserve"
       style="font-size:20px;font-style:normal;font-weight:normal;line-height:125%;letter-spacing:0px;word-spacing:0px;fill:#000000;fill-opacity:1;stroke:none;font-family:Sans"
       x="128.88483"
       y="433.76242"
       id="text6609"
       sodipodi:linespacing="125%"><tspan
         sodipodi:role="line"
         id="tspan6611"
         x="128.88483"
         y="433.76242">CMS</tspan></text>
    <text
       xml:space="preserve"
       style="font-style:normal;font-weight:normal;font-size:20px;line-height:125%;font-family:Sans;letter-spacing:0px;word-spacing:0px;fill:#000000;fill-opacity:1;stroke:none"
       x="360.80286"
       y="438.6131"
       id="text6609-5"
       sodipodi:linespacing="125%"><tspan
         sodipodi:role="line"
         id="tspan6611-6"
         x="360.80286"
         y="438.6131">laboratory</tspan></text>
    <text
       xml:space="preserve"
       style="font-size:14px;font-style:normal;font-variant:normal;font-weight:normal;font-stretch:normal;text-align:start;line-height:125%;letter-spacing:0px;word-spacing:0px;writing-mode:lr-tb;text-anchor:start;fill:#000000;fill-opacity:1;stroke:none;font-family:Sans;-inkscape-font-specification:Sans"
       x="404.99332"
       y="415.52377"
       id="text4577-0"
       sodipodi:linespacing="125%"><tspan
         sodipodi:role="line"
         id="tspan4614"
         x="404.99332"
         y="415.52377">E</tspan></text>
    <text
       xml:space="preserve"
       style="font-style:normal;font-weight:normal;font-size:10px;line-height:125%;font-family:Sans;letter-spacing:0px;word-spacing:0px;fill:#000000;fill-opacity:1;stroke:none"
       x="413.93329"
       y="418.80667"
       id="text4616"
       sodipodi:linespacing="125%"><tspan
         sodipodi:role="line"
         id="tspan4618"
         x="413.93329"
         y="418.80667">γ,</tspan></text>
    <text
       xml:space="preserve"
       style="font-size:14px;font-style:normal;font-variant:normal;font-weight:normal;font-stretch:normal;text-align:start;line-height:125%;letter-spacing:0px;word-spacing:0px;writing-mode:lr-tb;text-anchor:start;fill:#000000;fill-opacity:1;stroke:none;font-family:Sans;-inkscape-font-specification:Sans"
       x="448.21039"
       y="288.18591"
       id="text4577-0-0"
       sodipodi:linespacing="125%"><tspan
         sodipodi:role="line"
         id="tspan4614-9"
         x="448.21039"
         y="288.18591">E</tspan></text>
    <text
       xml:space="preserve"
       style="font-style:normal;font-weight:normal;font-size:10px;line-height:125%;font-family:Sans;letter-spacing:0px;word-spacing:0px;fill:#000000;fill-opacity:1;stroke:none"
       x="457.15036"
       y="291.46881"
       id="text4616-4"
       sodipodi:linespacing="125%"><tspan
         sodipodi:role="line"
         id="tspan4618-5"
         x="457.15036"
         y="291.46881">γ,+</tspan></text>
    <text
       xml:space="preserve"
       style="font-size:16px;font-style:normal;font-weight:normal;line-height:125%;letter-spacing:0px;word-spacing:0px;fill:#000000;fill-opacity:1;stroke:none;font-family:Sans"
       x="176.59828"
       y="288.01367"
       id="text7322"
       sodipodi:linespacing="125%"><tspan
         sodipodi:role="line"
         id="tspan7324"
         x="176.59828"
         y="288.01367">E</tspan></text>
    <text
       xml:space="preserve"
       style="font-size:16px;font-style:normal;font-weight:normal;line-height:125%;letter-spacing:0px;word-spacing:0px;fill:#000000;fill-opacity:1;stroke:none;font-family:Sans"
       x="185.10196"
       y="287.40628"
       id="text7326"
       sodipodi:linespacing="125%"><tspan
         sodipodi:role="line"
         id="tspan7328"
         x="185.10196"
         y="287.40628">=</tspan></text>
    <text
       xml:space="preserve"
       style="font-size:14px;font-style:normal;font-weight:normal;line-height:125%;letter-spacing:0px;word-spacing:0px;fill:#000000;fill-opacity:1;stroke:none;font-family:Sans"
       x="202.14774"
       y="278.99847"
       id="text7330"
       sodipodi:linespacing="125%"><tspan
         sodipodi:role="line"
         id="tspan7332"
         x="202.14774"
         y="278.99847">m</tspan></text>
    <text
       xml:space="preserve"
       style="font-size:16px;font-style:normal;font-weight:normal;line-height:125%;letter-spacing:0px;word-spacing:0px;fill:#000000;fill-opacity:1;stroke:none;font-family:Sans"
       x="131.70325"
       y="692.17145"
       id="text7330-3"
       sodipodi:linespacing="125%"><tspan
         sodipodi:role="line"
         id="tspan7332-2"
         x="131.70325"
         y="692.17145" /></text>
    <text
       xml:space="preserve"
       style="font-size:10px;font-style:normal;font-weight:normal;line-height:125%;letter-spacing:0px;word-spacing:0px;fill:#000000;fill-opacity:1;stroke:none;font-family:Sans"
       x="216.16028"
       y="280.41364"
       id="text5967-3"
       sodipodi:linespacing="125%"><tspan
         sodipodi:role="line"
         id="tspan5969-72"
         x="216.16028"
         y="280.41364">π</tspan></text>
    <text
       xml:space="preserve"
       style="font-size:16px;font-style:normal;font-weight:normal;line-height:125%;letter-spacing:0px;word-spacing:0px;fill:#000000;fill-opacity:1;stroke:none;font-family:Sans"
       x="201.20325"
       y="279.17145"
       id="text7330-9"
       sodipodi:linespacing="125%"><tspan
         sodipodi:role="line"
         id="tspan7332-29"
         x="201.20325"
         y="279.17145">___</tspan></text>
    <text
       xml:space="preserve"
       style="font-size:14px;font-style:normal;font-weight:normal;line-height:125%;letter-spacing:0px;word-spacing:0px;fill:#000000;fill-opacity:1;stroke:none;font-family:Sans"
       x="208.54309"
       y="294.19098"
       id="text7418"
       sodipodi:linespacing="125%"><tspan
         sodipodi:role="line"
         id="tspan7420"
         x="208.54309"
         y="294.19098">2</tspan></text>
    <text
       xml:space="preserve"
       style="font-size:6px;font-style:normal;font-weight:normal;line-height:125%;letter-spacing:0px;word-spacing:0px;fill:#000000;fill-opacity:1;stroke:none;font-family:Sans"
       x="221.92375"
       y="277.26648"
       id="text5971-3"
       sodipodi:linespacing="125%"><tspan
         sodipodi:role="line"
         id="tspan5973-1"
         x="221.92375"
         y="277.26648">0</tspan></text>
    <text
       xml:space="preserve"
       style="font-style:normal;font-weight:normal;font-size:10px;line-height:125%;font-family:Sans;letter-spacing:0px;word-spacing:0px;fill:#000000;fill-opacity:1;stroke:none"
       x="421.16486"
       y="415.21899"
       id="text4616-3"
       sodipodi:linespacing="125%"><tspan
         sodipodi:role="line"
         id="tspan4618-6"
         x="421.16486"
         y="415.21899">_</tspan></text>
  </g>
</svg>
